{
    "$schema": "https://schema.management.azure.com/schemas/2019-04-01/deploymentTemplate.json#",
    "contentVersion": "1.0.0.0",
    "parameters": {
        "storageAccountName": {
            "type": "string"
        }
    },
    "variables": {},
    "resources": [
        {
            "type": "Microsoft.Storage/storageAccounts",
            "apiVersion": "2019-06-01",
            "name": "[parameters('storageAccountName')]",
            "location": "[resourceGroup().location]",
            "kind": "StorageV2",
            "sku": {
                "name": "Standard_LRS"
            }
        }
    ],
    "outputs": {},
    "functions": []
}

        {
            "type": "Microsoft.Web/serverfarms",
            "apiVersion": "2018-02-01",
            "name": "[concat('serviceplan-',uniqueString(resourceGroup().id))]",
            "location": "[resourceGroup().location]",
            "sku": {
                "name": "S1"
            }
        },



        {
            "type":"Microsoft.Web/sites",
            "apiVersion": "2018-02-01",
            "name": "[concat('serviceplan-',uniqueString(resourceGroup().id))]",
            "location": "[resourceGroup().location]",
            "dependsOn": [
                "[resourceId('Microsoft.Web/serverfarms', concat('serviceplan-',uniqueString(resourceGroup().id)))]"
            ],
            "properties": {
                "serverFarmId": "[resourceId('Microsoft.Web/serverfarms', concat('serviceplan-',uniqueString(resourceGroup().id)))]",
                "siteConfig": {
                    "appSettings": [
                        {
                            "name": "storageAccessKey",
                            "value": "[if(not(empty(parameters('storageAccountName'))),listKeys(resourceId('Microsoft.Storage/storageAccounts', variables('storageAccountName')), '2019-06-01').keys[0].value,'')]"
                        }
                    ]
                }
            }
        }