{ 
    "$schema": "https://schema.management.azure.com/schemas/2019-04-01/deploymentTemplate.json#", 
    "contentVersion": "1.0.0.0", 
    "parameters": { 
        "AccountName": { 
            "type": "string", 
            "minLength": 3, 
            "maxLength": 24, 
            "metadata": { 
                "description": "unique dns name for storage account" 
            } 
        }, 
        "StorageAccountSKU": { 
            "type": "string", 
            "allowedValues": [ 
                "Standard_LRS", 
                "Standard_GRS" 
            ], 
            "metadata": { 
                "description": "Approved SKUs for deployment" 
            } 
        }, 
        "Location": { 
            "type": "string", 
            "defaultValue": "[resourceGroup().location]" 
        }, 
        "stage": { 
            "type": "string", 
            "defaultValue": "test", 
            "allowedValues": [ 
                "test", 
                "dev", 
                "prod" 
            ], 
            "metadata": { 
                "description": "Stage name for deployment" 
            } 
        } 
    }, 
    "variables": { 
        "AccountName": "[concat(parameters('AccountName') , parameters('stage'))]" 
    }, 
    "resources": [ 
        { 
          "type": "Microsoft.Storage/storageAccounts", 
          "apiVersion": "2019-06-01", 
          "name": "[variables('AccountName')]", 
          "location": "[parameters('Location')]", 
          "sku": { 
              "name": "[parameters('StorageAccountSKU')]" 
          }, 
          "kind": "StorageV2" 
        } 
    ]
} 